<?xml version="1.0" encoding="UTF-8" standalone="no"?>
<!-- Created with Inkscape (http://www.inkscape.org/) -->

<svg
   inkscape:version="1.2.2 (b0a8486541, 2022-12-01)"
   sodipodi:docname="drawing-3.svg"
   id="svg5"
   version="1.1"
   viewBox="0 0 1083.7333 571.5"
   height="2160"
   width="4096"
   xmlns:inkscape="http://www.inkscape.org/namespaces/inkscape"
   xmlns:sodipodi="http://sodipodi.sourceforge.net/DTD/sodipodi-0.dtd"
   xmlns="http://www.w3.org/2000/svg"
   xmlns:svg="http://www.w3.org/2000/svg">
  <sodipodi:namedview
     id="namedview7"
     pagecolor="#505050"
     bordercolor="#eeeeee"
     borderopacity="1"
     inkscape:showpageshadow="0"
     inkscape:pageopacity="0"
     inkscape:pagecheckerboard="0"
     inkscape:deskcolor="#505050"
     inkscape:document-units="mm"
     showgrid="false"
     inkscape:zoom="0.35355339"
     inkscape:cx="2039.296"
     inkscape:cy="1104.5008"
     inkscape:window-width="1890"
     inkscape:window-height="1030"
     inkscape:window-x="10"
     inkscape:window-y="30"
     inkscape:window-maximized="1"
     inkscape:current-layer="layer1" />
  <defs
     id="defs2">
    <filter
       style="color-interpolation-filters:sRGB"
       id="filter2656"
       inkscape:label="filter0" />
  </defs>
  <g
     inkscape:label="Layer 1"
     inkscape:groupmode="layer"
     id="layer1"
     style="display:inline">
    <rect
       style="display:inline;fill:#000000;stroke:#ffffff;stroke-width:0.25664583;fill-opacity:1;stroke-dasharray:none"
       id="0"
       width="1095.5448"
       height="580.92609"
       x="-6.2913232"
       y="-3.8118486"
       inkscape:label="#0" />
  </g>
  <g
     inkscape:groupmode="layer"
     id="layer2"
     inkscape:label="Layer 2">
    <path
       style="display:inline;fill:none;fill-opacity:0.0;stroke:#b408fb;stroke-width:0.423333;stroke-linecap:round;stroke-linejoin:round;stroke-dasharray:none;stroke-opacity:1"
       d="m -74.133975,281.91027 c 1.182427,53.65416 220.173515,-5.1539 307.121295,-95.4258 58.36351,-60.59482 122.13829,-123.380702 244.54499,-63.34664 117.36364,57.56071 196.89092,1.7408 311.52447,-123.97006931 C 907.26423,-130.46237 1175.888,-31.456521 1298.9242,138.75041 c 100.5343,139.07799 149.2719,274.02514 149.2719,274.02514"
       id="path17967"
       sodipodi:nodetypes="cssssc" />
    <path
       style="fill:none;fill-opacity:0.0;stroke:#fc22a1;stroke-width:0.423333;stroke-linecap:round;stroke-linejoin:round;stroke-dasharray:none;stroke-opacity:1"
       d="M -18.964507,381.25089 C 40.734941,363.66074 127.20261,428.5151 311.37446,336.24802 547.55711,217.92438 393.20403,521.3361 605.49359,471.7774 721.23268,444.75827 973.98311,384.51414 1087.725,576.23672 c 150.1666,253.11962 147.2379,270.79861 226.1953,262.86856"
       id="path18759"
       sodipodi:nodetypes="csssc" />
    <g
       id="g58423">
      <path
         d="M -74.134 281.91 C -72.9515 335.564 146.04 276.756 232.987 186.484 C 243.95 175.103 255.104 163.643 266.801 152.935 C 317.378 106.636 378.118 74.3803 477.532 123.138 C 557.7 162.456 620.213 148.872 688.32 96.2481 C 719.921 71.8312 752.726 39.0096 789.057 -0.832239 C 886.359 -107.537 1085.58 -59.324 1221.62 55.9988 C 1250.85 80.7753 1277.17 108.649 1298.92 138.75 C 1399.46 277.828 1448.2 412.776 1448.2 412.776"
         style="fill:none;stroke:#b408fb;fill-opacity:0.0;stroke-opacity:1.0;stroke-width:0.423333px"
         id="path58227" />
      <path
         d="M -73.2353 283.528 C -71.1678 336.042 145.538 279.087 233.657 189.203 C 244.636 177.926 255.81 166.56 267.527 155.921 C 319.191 109.419 379.283 78.426 477.361 127.275 C 556.51 166.85 618.233 154.539 686.971 102.365 C 718.566 78.2273 751.508 45.782 787.994 6.4828 C 885.728 -98.7715 1084.26 -51.2507 1219.44 64.4732 C 1248.5 89.3614 1274.65 117.237 1296.29 147.25 C 1396.84 286.878 1444.88 419.833 1446.01 419.72"
         style="fill:none;stroke:#b508f9;fill-opacity:0.0;stroke-opacity:1.0;stroke-width:0.423333px"
         id="path58229" />
      <path
         d="M -72.457 284.93 C -69.6229 336.456 145.103 281.106 234.237 191.558 C 245.23 180.37 256.422 169.087 268.156 158.508 C 320.761 111.829 380.292 81.9298 477.213 130.858 C 555.48 170.656 616.518 159.446 685.803 107.663 C 717.393 83.7666 750.454 51.6473 787.073 12.8181 C 885.181 -91.1797 1083.12 -44.2587 1217.55 71.8126 C 1246.47 96.7976 1272.48 124.674 1294.01 154.611 C 1394.56 294.715 1442.01 425.946 1444.11 425.735"
         style="fill:none;stroke:#b608f8;fill-opacity:0.0;stroke-opacity:1.0;stroke-width:0.423333px"
         id="path58231" />
      <path
         d="M -71.7184 286.26 C -68.1569 336.849 144.69 283.021 234.787 193.793 C 245.794 182.69 257.003 171.484 268.753 160.962 C 322.251 114.116 381.25 85.2546 477.073 134.258 C 554.502 174.268 614.89 164.103 684.694 112.69 C 716.279 89.023 749.454 57.2128 786.2 18.8297 C 884.663 -83.9758 1082.04 -37.624 1215.76 78.7769 C 1244.53 103.854 1270.41 131.732 1291.85 161.596 C 1392.41 302.152 1439.29 431.746 1442.32 431.442"
         style="fill:none;stroke:#b709f7;fill-opacity:0.0;stroke-opacity:1.0;stroke-width:0.423333px"
         id="path58233" />
      <path
         d="M -71.0046 287.545 C -66.74 337.228 144.292 284.872 235.319 195.953 C 246.339 184.933 257.564 173.801 269.329 163.333 C 323.691 116.327 382.175 88.4682 476.937 137.545 C 553.557 177.759 613.317 168.603 683.622 117.549 C 715.203 94.1035 748.487 62.5923 785.356 24.6402 C 884.161 -77.0128 1080.99 -31.2112 1214.03 85.5083 C 1242.66 110.674 1268.41 138.553 1289.76 168.347 C 1390.32 309.341 1436.66 437.352 1440.58 436.958"
         style="fill:none;stroke:#b809f5;fill-opacity:0.0;stroke-opacity:1.0;stroke-width:0.423333px"
         id="path58235" />
      <path
         d="M -70.3086 288.798 C -65.3585 337.598 143.903 286.677 235.838 198.058 C 246.87 187.119 258.111 176.06 269.892 165.646 C 325.095 118.482 383.078 91.6016 476.805 140.749 C 552.636 181.162 611.783 172.992 682.577 122.287 C 714.154 99.0572 747.544 67.8375 784.532 30.3057 C 883.673 -70.2237 1079.97 -24.9585 1212.34 92.0717 C 1240.84 117.324 1266.47 145.204 1287.72 174.93 C 1388.29 316.35 1434.09 442.818 1438.89 442.337"
         style="fill:none;stroke:#b809f4;fill-opacity:0.0;stroke-opacity:1.0;stroke-width:0.423333px"
         id="path58237" />
      <path
         d="M -69.6264 290.027 C -64.0045 337.961 143.522 288.447 236.346 200.122 C 247.391 189.262 258.648 178.274 270.443 167.913 C 326.471 120.595 383.962 94.6725 476.675 143.889 C 551.733 184.498 610.28 177.293 681.553 126.93 C 713.125 103.912 746.62 72.978 783.725 35.8582 C 883.193 -63.5699 1078.97 -18.8304 1210.68 98.5042 C 1239.06 123.841 1264.56 151.722 1285.72 181.381 C 1386.3 323.219 1431.58 448.175 1437.23 447.608"
         style="fill:none;stroke:#b90af3;fill-opacity:0.0;stroke-opacity:1.0;stroke-width:0.423333px"
         id="path58239" />
      <path
         d="M -68.9556 291.235 C -62.673 338.317 143.147 290.186 236.846 202.152 C 247.903 191.369 259.175 180.451 270.985 170.142 C 327.824 122.672 384.832 97.6923 476.548 146.978 C 550.845 187.778 608.802 181.523 680.546 131.496 C 712.114 108.686 745.712 78.0332 782.932 41.3184 C 882.722 -57.0267 1077.99 -12.8042 1209.06 104.83 C 1237.3 130.25 1262.68 158.132 1283.76 187.725 C 1384.34 329.974 1429.11 453.443 1435.59 452.792"
         style="fill:none;stroke:#ba0af2;fill-opacity:0.0;stroke-opacity:1.0;stroke-width:0.423333px"
         id="path58241" />
      <path
         d="M -68.2943 292.425 C -61.3605 338.669 142.778 291.901 237.339 204.153 C 248.407 193.446 259.695 182.597 271.519 172.339 C 329.159 124.72 385.689 100.669 476.422 150.022 C 549.97 191.012 607.345 185.692 679.553 135.997 C 711.117 113.393 744.816 83.0164 782.15 46.701 C 882.258 -50.5766 1077.02 -6.8637 1207.45 111.065 C 1235.57 136.568 1260.83 164.451 1281.82 193.98 C 1382.41 336.632 1426.67 458.637 1433.98 457.902"
         style="fill:none;stroke:#bb0af1;fill-opacity:0.0;stroke-opacity:1.0;stroke-width:0.423333px"
         id="path58243" />
      <path
         d="M -67.6413 293.601 C -60.0643 339.016 142.413 293.595 237.825 206.128 C 248.906 195.497 260.208 184.717 272.047 174.509 C 330.476 126.742 386.536 103.609 476.298 153.028 C 549.106 194.205 605.905 189.809 678.573 140.442 C 710.133 118.04 743.931 87.9376 781.378 52.0165 C 881.799 -44.2068 1076.06 -0.997211 1205.87 117.223 C 1233.86 142.807 1259.01 170.691 1279.91 200.156 C 1380.51 343.208 1424.26 463.765 1432.39 462.948"
         style="fill:none;stroke:#bc0bf0;fill-opacity:0.0;stroke-opacity:1.0;stroke-width:0.423333px"
         id="path58245" />
      <path
         d="M -66.9955 294.764 C -58.7824 339.359 142.052 295.27 238.307 208.082 C 249.399 197.526 260.716 186.813 272.568 176.654 C 331.779 128.742 387.373 106.516 476.175 156.002 C 548.251 197.363 604.482 193.881 677.603 144.838 C 709.159 122.637 743.057 92.8042 780.614 57.2731 C 881.346 -37.9076 1075.12 4.80431 1204.3 123.313 C 1232.17 148.977 1257.2 176.862 1278.01 206.263 C 1378.62 349.711 1421.88 468.837 1430.82 467.939"
         style="fill:none;stroke:#bd0bef;fill-opacity:0.0;stroke-opacity:1.0;stroke-width:0.423333px"
         id="path58247" />
      <path
         d="M -66.3562 295.915 C -57.5134 339.699 141.695 296.928 238.783 210.017 C 249.887 199.534 261.219 188.888 273.085 178.779 C 333.069 130.722 388.202 109.395 476.053 158.945 C 547.405 200.49 603.073 197.912 676.643 149.19 C 708.195 127.187 742.191 97.6224 779.858 62.4774 C 880.897 -31.6711 1074.18 10.548 1202.75 129.342 C 1230.5 155.086 1255.41 182.972 1276.14 212.31 C 1376.76 356.15 1419.53 473.858 1429.27 472.88"
         style="fill:none;stroke:#be0bee;fill-opacity:0.0;stroke-opacity:1.0;stroke-width:0.423333px"
         id="path58249" />
      <path
         d="M -65.7226 297.056 C -56.2558 340.036 141.341 298.571 239.255 211.933 C 250.37 201.524 261.717 190.945 273.597 180.884 C 334.347 132.684 389.023 112.247 475.933 161.862 C 546.566 203.588 601.677 201.907 675.692 153.503 C 707.24 131.696 741.333 102.397 779.108 67.6345 C 880.452 -25.4912 1073.25 16.2397 1201.21 135.317 C 1228.84 161.139 1253.64 189.026 1274.28 218.302 C 1374.91 362.53 1417.19 478.834 1427.72 477.776"
         style="fill:none;stroke:#be0bed;fill-opacity:0.0;stroke-opacity:1.0;stroke-width:0.423333px"
         id="path58251" />
      <path
         d="M -65.0943 298.188 C -55.0087 340.37 140.99 300.2 239.723 213.834 C 250.85 203.498 262.211 192.984 274.105 182.972 C 335.614 134.63 389.838 115.075 475.814 164.754 C 545.734 206.661 600.293 205.869 674.749 157.78 C 706.293 136.168 740.482 107.132 778.365 72.7487 C 880.01 -19.3626 1072.33 21.884 1199.68 141.241 C 1227.2 167.142 1251.88 195.03 1272.44 224.244 C 1373.07 368.856 1414.87 483.768 1426.19 482.631"
         style="fill:none;stroke:#bf0cec;fill-opacity:0.0;stroke-opacity:1.0;stroke-width:0.423333px"
         id="path58253" />
      <path
         d="M -64.4708 299.31 C -53.7711 340.701 140.642 301.817 240.188 215.721 C 251.326 205.456 262.701 195.008 274.608 185.043 C 336.872 136.561 390.646 117.882 475.695 167.625 C 544.909 209.709 598.919 209.8 673.813 162.024 C 705.353 140.605 739.637 111.83 777.628 77.8237 C 879.572 -13.2811 1071.41 27.4851 1198.17 147.121 C 1225.57 173.099 1250.14 200.988 1270.62 230.141 C 1371.26 375.135 1412.58 488.664 1424.68 487.449"
         style="fill:none;stroke:#c00ceb;fill-opacity:0.0;stroke-opacity:1.0;stroke-width:0.423333px"
         id="path58255" />
      <path
         d="M -63.8518 300.425 C -52.5424 341.03 140.296 303.423 240.649 217.594 C 251.798 207.401 263.188 197.017 275.108 187.1 C 338.121 138.478 391.449 120.669 475.577 170.475 C 544.09 212.737 597.555 213.703 672.883 166.237 C 704.42 145.011 738.799 116.495 776.895 82.8626 C 879.138 -7.24282 1070.51 33.0462 1196.67 152.958 C 1223.95 179.013 1248.41 206.903 1268.8 235.996 C 1369.45 381.368 1410.29 493.526 1423.17 492.233"
         style="fill:none;stroke:#c10cea;fill-opacity:0.0;stroke-opacity:1.0;stroke-width:0.423333px"
         id="path58257" />
      <path
         d="M -63.2368 301.532 C -51.3218 341.357 139.953 305.018 241.107 219.454 C 252.268 209.332 263.671 199.013 275.605 189.144 C 339.361 140.382 392.246 123.437 475.46 173.306 C 543.276 215.744 596.199 217.58 671.96 170.423 C 703.493 149.388 737.966 121.129 776.168 87.8679 C 878.706 -1.24473 1069.6 38.5704 1195.18 158.757 C 1222.34 184.888 1246.69 212.779 1267 241.812 C 1367.65 387.561 1408.03 498.355 1421.67 496.985"
         style="fill:none;stroke:#c20de9;fill-opacity:0.0;stroke-opacity:1.0;stroke-width:0.423333px"
         id="path58259" />
      <path
         d="M -62.6258 302.632 C -50.1089 341.682 139.611 306.603 241.563 221.303 C 252.734 211.252 264.151 200.996 276.099 191.174 C 340.594 142.274 393.038 126.188 475.344 176.119 C 542.467 218.732 594.853 221.433 671.043 174.583 C 702.572 153.737 737.138 125.734 775.445 92.8421 C 878.276 4.71596 1068.71 44.0601 1193.69 164.519 C 1220.74 190.727 1244.98 218.619 1265.21 247.591 C 1365.87 393.714 1405.77 503.154 1420.19 501.707"
         style="fill:none;stroke:#c30de8;fill-opacity:0.0;stroke-opacity:1.0;stroke-width:0.423333px"
         id="path58261" />
      <path
         d="M -62.0182 303.726 C -48.903 342.005 139.272 308.178 242.015 223.141 C 253.198 213.16 264.629 202.968 276.59 193.193 C 341.82 144.156 393.826 128.923 475.229 178.916 C 541.663 221.703 593.514 225.263 670.131 178.718 C 701.656 158.061 736.315 130.312 774.727 97.787 C 877.85 10.6417 1067.82 49.5176 1192.22 170.248 C 1219.15 196.531 1243.28 224.424 1263.43 253.337 C 1364.1 399.832 1403.54 507.925 1418.71 506.402"
         style="fill:none;stroke:#c30de7;fill-opacity:0.0;stroke-opacity:1.0;stroke-width:0.423333px"
         id="path58263" />
      <path
         d="M -61.4141 304.814 C -47.7039 342.326 138.935 309.745 242.466 224.969 C 253.659 215.058 265.104 204.929 277.078 195.2 C 343.038 146.026 394.609 131.643 475.114 181.697 C 540.863 224.657 592.183 229.073 669.224 182.83 C 700.745 162.36 735.497 134.865 774.012 102.705 C 877.425 16.5345 1066.93 54.9449 1190.75 175.945 C 1217.57 202.303 1241.59 230.197 1261.66 259.05 C 1362.33 405.915 1401.31 512.67 1417.24 511.07"
         style="fill:none;stroke:#c40de6;fill-opacity:0.0;stroke-opacity:1.0;stroke-width:0.423333px"
         id="path58265" />
      <path
         d="M -60.8131 305.896 C -46.511 342.646 138.599 311.303 242.913 226.787 C 254.118 216.946 265.576 206.879 277.563 197.197 C 344.251 147.888 395.388 134.348 474.999 184.464 C 540.068 227.596 590.858 232.862 668.321 186.921 C 699.839 166.638 734.683 139.394 773.302 107.596 C 877.003 22.3964 1066.05 60.3437 1189.29 181.612 C 1216 208.045 1239.91 235.939 1259.9 264.734 C 1360.58 411.967 1399.09 517.39 1415.77 515.714"
         style="fill:none;stroke:#c50ee5;fill-opacity:0.0;stroke-opacity:1.0;stroke-width:0.423333px"
         id="path58267" />
      <path
         d="M -60.2152 306.973 C -45.3241 342.964 138.265 312.854 243.359 228.596 C 254.574 218.824 266.047 208.82 278.047 199.184 C 345.457 149.739 396.164 137.04 474.886 187.217 C 539.276 230.52 589.541 236.632 667.424 190.991 C 698.938 170.893 733.873 143.9 772.594 112.464 C 876.583 28.2291 1065.18 65.7155 1187.84 187.25 C 1214.43 213.758 1238.24 241.653 1258.15 270.389 C 1358.83 417.988 1396.89 522.086 1414.32 520.335"
         style="fill:none;stroke:#c60ee4;fill-opacity:0.0;stroke-opacity:1.0;stroke-width:0.423333px"
         id="path58269" />
      <path
         d="M -59.6201 308.045 C -44.1429 343.28 137.933 314.398 243.802 230.397 C 255.028 220.693 266.514 210.752 278.527 201.161 C 346.658 151.582 396.935 139.719 474.773 189.956 C 538.488 233.43 588.229 240.384 666.53 195.042 C 698.04 175.129 733.067 148.385 771.89 117.308 C 876.165 34.0341 1064.3 71.0618 1186.4 192.862 C 1212.88 219.444 1236.57 247.34 1256.41 276.018 C 1357.1 423.981 1394.7 526.759 1412.87 524.934"
         style="fill:none;stroke:#c60ee3;fill-opacity:0.0;stroke-opacity:1.0;stroke-width:0.423333px"
         id="path58271" />
      <path
         d="M -59.0276 309.111 C -42.967 343.595 137.602 315.934 244.244 232.189 C 255.48 222.554 266.98 212.675 279.006 203.13 C 347.853 153.417 397.703 142.386 474.66 192.684 C 537.704 236.327 586.924 244.12 665.641 199.074 C 697.147 179.345 732.264 152.849 771.19 122.13 C 875.749 39.8127 1063.43 76.3838 1184.96 198.449 C 1211.33 225.104 1234.92 253.001 1254.67 281.621 C 1355.37 429.947 1392.51 531.412 1411.43 529.512"
         style="fill:none;stroke:#c70fe2;fill-opacity:0.0;stroke-opacity:1.0;stroke-width:0.423333px"
         id="path58273" />
      <path
         d="M -58.4378 310.174 C -41.7962 343.909 137.272 317.464 244.683 233.974 C 255.931 224.407 267.444 214.589 279.483 205.089 C 349.043 155.243 398.468 145.042 474.548 195.399 C 536.923 239.211 585.624 247.839 664.755 203.089 C 696.258 183.543 731.465 157.294 770.492 126.931 C 875.335 45.5662 1062.57 81.6828 1183.53 204.011 C 1209.78 230.739 1233.27 258.638 1252.95 287.199 C 1353.65 435.886 1390.34 536.044 1409.99 534.07"
         style="fill:none;stroke:#c80fe1;fill-opacity:0.0;stroke-opacity:1.0;stroke-width:0.423333px"
         id="path58275" />
      <path
         d="M -57.8504 311.231 C -40.6302 344.221 136.944 318.987 245.121 235.751 C 256.379 226.252 267.906 216.496 279.957 207.041 C 350.228 157.062 399.23 147.686 474.436 198.103 C 536.146 242.084 584.329 251.542 663.873 207.088 C 695.373 187.724 730.67 161.721 769.797 131.712 C 874.922 51.2958 1061.71 86.9597 1182.1 209.55 C 1208.24 236.352 1231.62 264.251 1251.22 292.755 C 1351.93 441.801 1388.17 540.657 1408.56 538.609"
         style="fill:none;stroke:#c90fe0;fill-opacity:0.0;stroke-opacity:1.0;stroke-width:0.423333px"
         id="path58277" />
      <path
         d="M -57.2653 312.285 C -39.4689 344.532 136.617 320.505 245.557 237.521 C 256.826 228.09 268.366 218.395 280.43 208.985 C 351.408 158.874 399.988 150.32 474.325 200.797 C 535.371 244.945 583.04 255.231 662.995 211.07 C 694.491 191.888 729.877 166.13 769.105 136.475 C 874.512 57.0025 1060.85 92.2155 1180.68 215.067 C 1206.71 241.941 1229.99 269.841 1249.51 298.288 C 1350.23 447.693 1386.02 545.252 1407.14 543.13"
         style="fill:none;stroke:#ca0fdf;fill-opacity:0.0;stroke-opacity:1.0;stroke-width:0.423333px"
         id="path58279" />
      <path
         d="M -56.6825 313.334 C -38.3121 344.842 136.292 322.016 245.991 239.285 C 257.27 229.921 268.824 220.286 280.901 210.922 C 352.584 160.679 400.744 152.944 474.214 203.48 C 534.6 247.795 581.756 258.906 662.12 215.037 C 693.612 196.036 729.088 170.522 768.416 141.219 C 874.102 62.6873 1060 97.4512 1179.27 220.563 C 1205.19 247.509 1228.36 275.41 1247.8 303.8 C 1348.52 453.562 1383.87 549.829 1405.72 547.634"
         style="fill:none;stroke:#ca10de;fill-opacity:0.0;stroke-opacity:1.0;stroke-width:0.423333px"
         id="path58281" />
      <path
         d="M -56.1019 314.38 C -37.1596 345.15 135.967 323.522 246.424 241.041 C 257.714 231.745 269.28 222.171 281.37 212.851 C 353.755 162.477 401.496 155.558 474.104 206.153 C 533.831 250.634 580.476 262.567 661.248 218.99 C 692.737 200.168 728.301 174.898 767.729 145.945 C 873.694 68.3511 1059.14 102.667 1177.86 226.038 C 1203.67 253.057 1226.73 280.959 1246.1 309.292 C 1346.83 459.409 1381.73 554.389 1404.31 552.121"
         style="fill:none;stroke:#cb10dd;fill-opacity:0.0;stroke-opacity:1.0;stroke-width:0.423333px"
         id="path58283" />
      <path
         d="M -55.5233 315.422 C -36.0112 345.458 135.644 325.023 246.855 242.792 C 258.155 233.562 269.735 224.049 281.837 214.773 C 354.922 164.269 402.247 158.162 473.994 208.817 C 533.066 253.464 579.201 266.215 660.38 222.928 C 691.864 204.286 727.518 179.258 767.045 150.654 C 873.288 73.9947 1058.3 107.865 1176.46 231.494 C 1202.16 258.585 1225.12 286.488 1244.41 314.764 C 1345.14 465.235 1379.59 558.933 1402.9 556.592"
         style="fill:none;stroke:#cc10dc;fill-opacity:0.0;stroke-opacity:1.0;stroke-width:0.423333px"
         id="path58285" />
      <path
         d="M -54.9467 316.46 C -34.8667 345.764 135.322 326.518 247.285 244.536 C 258.595 235.373 270.189 225.92 282.303 216.689 C 356.086 166.054 402.994 160.758 473.884 211.471 C 532.302 256.283 577.931 269.85 659.514 226.853 C 690.995 208.39 726.737 183.603 766.363 155.348 C 872.883 79.6189 1057.45 113.045 1175.06 236.931 C 1200.65 264.094 1223.5 291.997 1242.72 320.217 C 1343.46 471.041 1377.47 563.461 1401.5 561.048"
         style="fill:none;stroke:#cd11db;fill-opacity:0.0;stroke-opacity:1.0;stroke-width:0.423333px"
         id="path58287" />
      <path
         d="M -54.372 317.495 C -33.726 346.07 135.001 328.008 247.713 246.275 C 259.034 237.178 270.64 227.786 282.767 218.599 C 357.245 167.834 403.739 163.345 473.775 214.117 C 531.542 259.093 576.664 273.474 658.651 230.764 C 690.129 212.48 725.958 187.933 765.683 160.025 C 872.479 85.2243 1056.61 118.207 1173.66 242.35 C 1199.14 269.584 1221.9 297.489 1241.04 325.652 C 1341.78 476.828 1375.35 567.974 1400.1 565.489"
         style="fill:none;stroke:#cd11da;fill-opacity:0.0;stroke-opacity:1.0;stroke-width:0.423333px"
         id="path58289" />
      <path
         d="M -53.7992 318.526 C -32.589 346.374 134.681 329.494 248.14 248.008 C 259.471 238.978 271.091 229.645 283.23 220.502 C 358.4 169.608 404.482 165.924 473.666 216.754 C 530.784 261.895 575.402 277.086 657.791 234.663 C 689.265 216.557 725.183 192.25 765.006 164.688 C 872.077 90.8117 1055.77 123.353 1172.27 247.752 C 1197.64 275.057 1220.29 302.963 1239.36 331.069 C 1340.11 482.596 1373.24 572.473 1398.7 569.915"
         style="fill:none;stroke:#ce11d9;fill-opacity:0.0;stroke-opacity:1.0;stroke-width:0.423333px"
         id="path58291" />
      <path
         d="M -53.2282 319.554 C -31.4556 346.678 134.362 330.975 248.565 249.736 C 259.907 240.771 271.54 231.498 283.692 222.4 C 359.552 171.376 405.222 168.494 473.557 219.383 C 530.028 264.687 574.144 280.686 656.934 238.55 C 688.404 220.621 724.409 196.553 764.33 169.336 C 871.676 96.3816 1054.93 128.483 1170.89 253.137 C 1196.15 280.513 1218.7 308.419 1237.68 336.47 C 1338.44 488.346 1371.13 576.957 1397.31 574.328"
         style="fill:none;stroke:#cf11d8;fill-opacity:0.0;stroke-opacity:1.0;stroke-width:0.423333px"
         id="path58293" />
      <path
         d="M -52.6589 320.579 C -30.3256 346.981 134.044 332.451 248.989 251.458 C 260.342 242.56 271.987 233.346 284.152 224.291 C 360.701 173.139 405.96 171.057 473.449 222.004 C 529.274 267.471 572.889 284.276 656.079 242.425 C 687.546 224.673 723.638 200.844 763.657 173.97 C 871.276 101.935 1054.1 133.598 1169.5 258.505 C 1194.66 285.952 1217.11 313.859 1236.02 341.854 C 1336.78 494.079 1369.04 581.428 1395.93 578.727"
         style="fill:none;stroke:#d012d7;fill-opacity:0.0;stroke-opacity:1.0;stroke-width:0.423333px"
         id="path58295" />
      <path
         d="M -52.0912 321.601 C -29.1989 347.282 133.727 333.923 249.412 253.176 C 260.775 244.343 272.434 235.188 284.61 226.177 C 361.846 174.897 406.696 173.613 473.341 224.617 C 528.523 270.247 571.638 287.854 655.227 246.289 C 686.69 228.713 722.869 205.121 762.986 178.591 C 870.877 107.472 1053.27 138.697 1168.13 263.858 C 1193.18 291.375 1215.52 319.283 1234.35 347.223 C 1335.12 499.795 1366.94 585.886 1394.55 583.114"
         style="fill:none;stroke:#d012d7;fill-opacity:0.0;stroke-opacity:1.0;stroke-width:0.423333px"
         id="path58297" />
      <path
         d="M -51.5252 322.621 C -28.0754 347.583 133.411 335.391 249.834 254.888 C 261.207 246.121 272.879 237.026 285.067 228.058 C 362.988 176.65 407.43 176.161 473.233 227.223 C 527.774 273.014 570.391 291.423 654.377 250.142 C 685.837 232.741 722.103 209.387 762.316 183.198 C 870.48 112.993 1052.44 143.782 1166.75 269.195 C 1191.69 296.783 1213.93 324.692 1232.7 352.576 C 1333.47 505.495 1364.86 590.331 1393.17 587.488"
         style="fill:none;stroke:#d112d6;fill-opacity:0.0;stroke-opacity:1.0;stroke-width:0.423333px"
         id="path58299" />
      <path
         d="M -50.9608 323.637 C -26.9551 347.883 133.096 336.855 250.255 256.596 C 261.638 247.894 273.322 238.858 285.524 229.933 C 364.127 178.398 408.162 178.702 473.126 229.821 C 527.026 275.775 569.147 294.982 653.53 253.984 C 684.986 236.758 721.338 213.64 761.649 187.792 C 870.083 118.498 1051.61 148.852 1165.38 274.518 C 1190.22 302.176 1212.36 330.086 1231.04 357.914 C 1331.82 511.178 1362.78 594.764 1391.8 591.85"
         style="fill:none;stroke:#d212d5;fill-opacity:0.0;stroke-opacity:1.0;stroke-width:0.423333px"
         id="path58301" />
      <path
         d="M -50.3979 324.651 C -25.8377 348.183 132.781 338.315 250.674 258.299 C 262.067 249.662 273.765 240.685 285.978 231.804 C 365.262 180.141 408.892 181.236 473.019 232.413 C 526.281 278.527 567.907 298.531 652.685 257.816 C 684.138 240.765 720.576 217.882 760.983 192.374 C 869.688 123.989 1050.78 153.909 1164.02 279.826 C 1188.74 307.554 1210.78 335.465 1229.39 363.238 C 1330.18 516.847 1360.7 599.185 1390.43 596.2"
         style="fill:none;stroke:#d213d4;fill-opacity:0.0;stroke-opacity:1.0;stroke-width:0.423333px"
         id="path58303" />
      <path
         d="M -49.8364 325.662 C -24.7233 348.481 132.468 339.771 251.093 259.998 C 262.496 251.426 274.206 242.507 286.432 233.669 C 366.395 181.88 409.62 183.763 472.912 234.998 C 525.538 281.273 566.669 302.071 651.842 261.637 C 683.291 244.76 719.815 222.113 760.319 196.944 C 869.294 129.465 1049.96 158.953 1162.65 285.12 C 1187.28 312.918 1209.21 340.83 1227.75 368.548 C 1328.54 522.501 1358.63 603.594 1389.06 600.538"
         style="fill:none;stroke:#d313d3;fill-opacity:0.0;stroke-opacity:1.0;stroke-width:0.423333px"
         id="path58305" />
      <path
         d="M -49.2764 326.67 C -23.6118 348.779 132.155 341.223 251.51 261.692 C 262.923 253.185 274.647 244.325 286.884 235.53 C 367.525 183.614 410.346 186.284 472.806 237.576 C 524.797 284.011 565.435 305.602 651.001 265.449 C 682.447 248.746 719.057 226.333 759.656 201.502 C 868.9 134.928 1049.14 163.984 1161.29 290.401 C 1185.81 318.269 1207.65 346.181 1226.11 373.844 C 1326.91 528.14 1356.57 607.992 1387.7 604.866"
         style="fill:none;stroke:#d413d2;fill-opacity:0.0;stroke-opacity:1.0;stroke-width:0.423333px"
         id="path58307" />
      <path
         d="M -48.7178 327.676 C -22.503 349.076 131.843 342.672 251.926 263.382 C 263.35 254.939 275.086 246.138 287.336 237.386 C 368.651 185.344 411.07 188.799 472.7 240.147 C 524.058 286.743 564.204 309.124 650.163 269.252 C 681.605 252.722 718.3 230.543 758.996 206.049 C 868.508 140.376 1048.32 169.002 1159.94 295.668 C 1184.35 323.605 1206.08 351.519 1224.47 379.127 C 1325.28 533.765 1354.51 612.379 1386.34 609.182"
         style="fill:none;stroke:#d513d1;fill-opacity:0.0;stroke-opacity:1.0;stroke-width:0.423333px"
         id="path58309" />
      <path
         d="M -48.1606 328.679 C -21.3969 349.372 131.532 344.117 252.341 265.068 C 263.775 256.69 275.524 247.946 287.786 239.238 C 369.776 187.069 411.792 191.308 472.594 242.713 C 523.32 289.468 562.976 312.638 649.326 273.045 C 680.765 256.688 717.545 234.742 758.337 210.585 C 868.117 145.812 1047.5 174.008 1158.59 300.923 C 1182.89 328.929 1204.52 356.844 1222.84 384.397 C 1323.65 539.376 1352.45 616.755 1384.98 613.489"
         style="fill:none;stroke:#d514d0;fill-opacity:0.0;stroke-opacity:1.0;stroke-width:0.423333px"
         id="path58311" />
      <path
         d="M -47.6047 329.68 C -20.2935 349.667 131.221 345.559 252.756 266.75 C 264.199 258.436 275.961 249.751 288.235 241.085 C 370.897 188.791 412.513 193.81 472.488 245.272 C 522.584 292.186 561.751 316.143 648.491 276.829 C 679.927 260.644 716.792 238.931 757.679 215.11 C 867.726 151.234 1046.69 179.002 1157.24 306.165 C 1181.44 334.241 1202.97 362.156 1221.21 389.655 C 1322.03 544.974 1350.4 621.121 1383.63 617.784"
         style="fill:none;stroke:#d614cf;fill-opacity:0.0;stroke-opacity:1.0;stroke-width:0.423333px"
         id="path58313" />
      <path
         d="M -47.05 330.679 C -19.1926 349.962 130.911 346.998 253.169 268.428 C 264.623 260.178 276.397 251.551 288.683 242.928 C 372.016 190.508 413.232 196.307 472.383 247.826 C 521.85 294.898 560.529 319.64 647.659 280.604 C 679.091 264.592 716.041 243.111 757.023 219.625 C 867.337 156.644 1045.87 183.985 1155.89 311.395 C 1179.98 339.54 1201.42 367.456 1219.59 394.9 C 1320.41 550.559 1348.36 625.477 1382.28 622.07"
         style="fill:none;stroke:#d714ce;fill-opacity:0.0;stroke-opacity:1.0;stroke-width:0.423333px"
         id="path58315" />
      <path
         d="M -46.4967 331.675 C -18.0942 350.256 130.602 348.433 253.581 270.102 C 265.045 261.916 276.832 253.347 289.13 244.766 C 373.132 192.222 413.949 198.798 472.277 250.373 C 521.118 297.605 559.31 323.129 646.828 284.37 C 678.256 268.53 715.291 247.281 756.369 224.129 C 866.948 162.042 1045.06 188.956 1154.55 316.613 C 1178.54 344.827 1199.87 372.743 1217.97 400.134 C 1318.8 556.131 1346.32 629.823 1380.93 626.347"
         style="fill:none;stroke:#d815cd;fill-opacity:0.0;stroke-opacity:1.0;stroke-width:0.423333px"
         id="path58317" />
      <path
         d="M -45.9445 332.669 C -16.9983 350.55 130.294 349.865 253.993 271.773 C 265.466 263.651 277.266 255.139 289.576 246.601 C 374.246 193.932 414.665 201.284 472.172 252.915 C 520.387 300.305 558.093 326.61 645.999 288.129 C 677.424 272.46 714.544 251.442 755.716 228.623 C 866.56 167.428 1044.25 193.916 1153.21 321.82 C 1177.09 350.102 1198.33 378.019 1216.35 405.356 C 1317.18 561.691 1344.28 634.159 1379.59 630.613"
         style="fill:none;stroke:#d815cd;fill-opacity:0.0;stroke-opacity:1.0;stroke-width:0.423333px"
         id="path58319" />
      <path
         d="M -45.3936 333.661 C -15.9048 350.843 129.986 351.293 254.403 273.44 C 265.887 265.381 277.699 256.927 290.021 248.432 C 375.358 195.638 415.38 203.764 472.068 255.451 C 519.658 302.999 556.879 330.084 645.172 291.879 C 676.593 276.381 713.797 255.594 755.064 233.108 C 866.173 172.801 1043.45 198.865 1151.87 327.015 C 1175.65 355.366 1196.79 383.284 1214.73 410.566 C 1315.58 567.239 1342.25 638.486 1378.25 634.871"
         style="fill:none;stroke:#d915cc;fill-opacity:0.0;stroke-opacity:1.0;stroke-width:0.423333px"
         id="path58321" />
      <path
         d="M -44.8438 334.651 C -14.8135 351.135 129.679 352.719 254.813 275.103 C 266.307 267.108 278.131 258.712 290.466 250.258 C 376.467 197.341 416.092 206.239 471.963 257.982 C 518.93 305.687 555.667 333.55 644.347 295.621 C 675.765 280.293 713.053 259.737 754.414 237.583 C 865.787 178.164 1042.64 203.804 1150.54 332.199 C 1174.21 360.618 1195.25 388.537 1213.12 415.766 C 1313.97 572.775 1340.23 642.803 1376.91 639.119"
         style="fill:none;stroke:#da15cb;fill-opacity:0.0;stroke-opacity:1.0;stroke-width:0.423333px"
         id="path58323" />
      <path
         d="M -44.2952 335.639 C -13.7246 351.427 129.373 354.142 255.222 276.763 C 266.725 268.831 278.563 260.492 290.909 252.081 C 377.573 199.039 416.804 208.709 471.859 260.508 C 518.204 308.37 554.458 337.009 643.523 299.355 C 674.938 284.198 712.31 263.871 753.765 242.048 C 865.402 183.515 1041.84 208.733 1149.2 337.373 C 1172.78 365.86 1193.71 393.78 1211.52 420.955 C 1312.37 578.3 1338.21 647.112 1375.57 643.359"
         style="fill:none;stroke:#da16ca;fill-opacity:0.0;stroke-opacity:1.0;stroke-width:0.423333px"
         id="path58325" />
      <path
         d="M -43.7477 336.625 C -12.6378 351.718 129.067 355.562 255.63 278.42 C 267.143 270.551 278.993 262.269 291.351 253.9 C 378.678 200.735 417.513 211.174 471.755 263.029 C 517.479 311.047 553.252 340.461 642.701 303.082 C 674.112 288.095 711.568 267.997 753.117 246.505 C 865.017 188.856 1041.03 213.651 1147.88 342.536 C 1171.34 371.091 1192.18 399.012 1209.91 426.133 C 1310.77 583.813 1336.19 651.411 1374.24 647.59"
         style="fill:none;stroke:#db16c9;fill-opacity:0.0;stroke-opacity:1.0;stroke-width:0.423333px"
         id="path58327" />
      <path
         d="M -43.2013 337.609 C -11.5533 352.008 128.762 356.979 256.037 280.073 C 267.56 272.268 279.423 264.043 291.793 255.716 C 379.78 202.427 418.222 213.633 471.651 265.544 C 516.756 313.719 552.048 343.907 641.881 306.802 C 673.288 291.984 710.828 272.115 752.471 250.953 C 864.634 194.186 1040.23 218.56 1146.55 347.688 C 1169.91 376.311 1190.66 404.233 1208.31 431.3 C 1309.18 589.315 1334.17 655.703 1372.91 651.812"
         style="fill:none;stroke:#dc16c8;fill-opacity:0.0;stroke-opacity:1.0;stroke-width:0.423333px"
         id="path58329" />
      <path
         d="M -42.656 338.591 C -10.4708 352.298 128.457 358.393 256.443 281.723 C 267.977 273.981 279.852 265.813 292.233 257.528 C 380.88 204.116 418.929 216.088 471.547 268.055 C 516.034 316.386 550.846 347.345 641.062 310.514 C 672.466 295.865 710.089 276.224 751.826 255.392 C 864.251 199.505 1039.43 223.459 1145.23 352.831 C 1168.49 381.522 1189.13 409.444 1206.72 436.458 C 1307.59 594.807 1332.16 659.985 1371.58 656.026"
         style="fill:none;stroke:#dd16c7;fill-opacity:0.0;stroke-opacity:1.0;stroke-width:0.423333px"
         id="path58331" />
      <path
         d="M -42.1117 339.571 C -9.39044 352.587 128.153 359.805 256.849 283.369 C 268.392 275.69 280.279 267.579 292.673 259.337 C 381.978 205.801 419.635 218.539 471.444 270.561 C 515.313 319.048 549.647 350.777 640.245 314.218 C 671.646 299.739 709.352 280.326 751.182 259.822 C 863.868 204.814 1038.63 228.348 1143.9 357.963 C 1167.06 386.722 1187.61 414.645 1205.12 441.606 C 1306 600.288 1330.16 664.26 1370.26 660.232"
         style="fill:none;stroke:#dd17c6;fill-opacity:0.0;stroke-opacity:1.0;stroke-width:0.423333px"
         id="path58333" />
      <path
         d="M -41.5684 340.549 C -8.31211 352.876 127.85 361.214 257.253 285.013 C 268.807 277.397 280.707 269.343 293.112 261.142 C 383.074 207.484 420.339 220.984 471.34 273.062 C 514.594 321.704 548.449 354.202 639.429 317.916 C 670.827 303.605 708.616 284.42 750.54 264.244 C 863.487 210.113 1037.84 233.229 1142.59 363.086 C 1165.64 391.912 1186.09 419.836 1203.53 446.744 C 1304.41 605.758 1328.15 668.526 1368.94 664.43"
         style="fill:none;stroke:#de17c5;fill-opacity:0.0;stroke-opacity:1.0;stroke-width:0.423333px"
         id="path58335" />
      <path
         d="M -41.0261 341.526 C -7.23578 353.165 127.547 362.62 257.658 286.654 C 269.221 279.1 281.133 271.103 293.55 262.943 C 384.168 209.163 421.042 223.426 471.237 275.558 C 513.877 324.356 547.254 357.621 638.615 321.607 C 670.009 307.465 707.882 288.506 749.898 268.658 C 863.106 215.402 1037.04 238.1 1141.27 368.2 C 1164.22 397.093 1184.57 425.018 1201.94 451.872 C 1302.83 611.219 1326.15 672.785 1367.62 668.621"
         style="fill:none;stroke:#df17c4;fill-opacity:0.0;stroke-opacity:1.0;stroke-width:0.423333px"
         id="path58337" />
      <path
         d="M -40.4849 342.5 C -6.1614 353.452 127.244 364.024 258.061 288.291 C 269.634 280.8 281.558 272.86 293.987 264.742 C 385.26 210.839 421.744 225.862 471.134 278.05 C 513.16 327.003 546.062 361.034 637.802 325.292 C 669.193 311.317 707.149 292.585 749.258 273.064 C 862.726 220.682 1036.25 242.963 1139.96 373.304 C 1162.81 402.265 1183.06 430.19 1200.36 456.991 C 1301.25 616.669 1324.16 677.036 1366.3 672.804"
         style="fill:none;stroke:#df17c4;fill-opacity:0.0;stroke-opacity:1.0;stroke-width:0.423333px"
         id="path58339" />
      <path
         d="M -39.9446 343.473 C -5.08894 353.74 126.943 365.425 258.464 289.926 C 270.046 282.498 281.983 274.613 294.424 266.537 C 386.35 212.512 422.444 228.295 471.032 280.537 C 512.445 329.645 544.871 364.441 636.991 328.97 C 668.379 315.162 706.417 296.657 748.619 277.462 C 862.346 225.952 1035.46 247.817 1138.64 378.399 C 1161.39 407.427 1181.55 435.353 1198.77 462.102 C 1299.67 622.11 1322.17 681.279 1364.98 676.979"
         style="fill:none;stroke:#e018c3;fill-opacity:0.0;stroke-opacity:1.0;stroke-width:0.423333px"
         id="path58341" />
      <path
         d="M -39.4052 344.444 C -4.01836 354.026 126.641 366.824 258.865 291.558 C 270.458 284.192 282.407 276.364 294.86 268.329 C 387.438 214.183 423.144 230.723 470.929 283.021 C 511.731 332.282 543.682 367.842 636.181 332.641 C 667.566 319.001 705.686 300.722 747.981 281.852 C 861.967 231.213 1034.67 252.662 1137.34 383.485 C 1159.98 412.58 1180.04 440.507 1197.19 467.203 C 1298.1 627.541 1320.18 685.515 1363.67 681.147"
         style="fill:none;stroke:#e118c2;fill-opacity:0.0;stroke-opacity:1.0;stroke-width:0.423333px"
         id="path58343" />
      <path
         d="M -38.8668 345.414 C -2.94962 354.312 126.341 368.221 259.267 293.187 C 270.869 285.883 282.831 278.112 295.295 270.118 C 388.525 215.85 423.842 233.147 470.827 285.499 C 511.018 334.915 542.496 371.236 635.373 336.306 C 666.754 322.833 704.957 304.779 747.344 286.235 C 861.589 236.465 1033.88 257.499 1136.03 388.562 C 1158.57 417.724 1178.53 445.653 1195.62 472.295 C 1296.53 632.963 1318.19 689.743 1362.36 685.308"
         style="fill:none;stroke:#e218c1;fill-opacity:0.0;stroke-opacity:1.0;stroke-width:0.423333px"
         id="path58345" />
      <path
         d="M -38.3292 346.382 C -1.8827 354.598 126.04 369.615 259.667 294.813 C 271.279 287.572 283.253 279.856 295.729 271.904 C 389.609 217.515 424.538 235.567 470.724 287.974 C 510.307 337.544 541.311 374.626 634.566 339.965 C 665.944 326.659 704.229 308.83 746.709 290.61 C 861.212 241.709 1033.09 262.328 1134.72 393.631 C 1157.16 422.86 1177.03 450.789 1194.04 477.379 C 1294.96 638.376 1316.21 693.965 1361.05 689.462"
         style="fill:none;stroke:#e218c0;fill-opacity:0.0;stroke-opacity:1.0;stroke-width:0.423333px"
         id="path58347" />
      <path
         d="M -37.7926 347.348 C -0.817548 354.883 125.741 371.006 260.067 296.437 C 271.689 289.257 283.675 281.598 296.163 273.687 C 390.692 219.176 425.234 237.982 470.622 290.444 C 509.597 340.168 540.129 378.009 633.76 343.618 C 665.135 330.478 703.502 312.874 746.074 294.978 C 860.835 246.943 1032.3 267.149 1133.42 398.691 C 1155.76 427.987 1175.53 455.917 1192.47 482.454 C 1293.39 643.78 1314.24 698.179 1359.75 693.608"
         style="fill:none;stroke:#e319bf;fill-opacity:0.0;stroke-opacity:1.0;stroke-width:0.423333px"
         id="path58349" />
      <path
         d="M -37.2569 348.313 C 0.245857 355.168 125.441 372.396 260.466 298.058 C 272.098 290.94 284.096 283.337 296.595 275.468 C 391.772 220.836 425.929 240.394 470.521 292.911 C 508.887 342.788 538.948 381.387 632.956 347.264 C 664.327 334.291 702.776 316.911 745.44 299.339 C 860.458 252.169 1031.52 271.961 1132.12 403.743 C 1154.36 433.105 1174.03 461.036 1190.9 487.521 C 1291.83 649.175 1312.26 702.387 1358.44 697.748"
         style="fill:none;stroke:#e419be;fill-opacity:0.0;stroke-opacity:1.0;stroke-width:0.423333px"
         id="path58351" />
      <path
         d="M -36.722 349.276 C 1.30755 355.453 125.143 373.783 260.865 299.676 C 272.506 292.62 284.517 285.073 297.028 277.245 C 392.851 222.492 426.622 242.802 470.419 295.373 C 508.179 345.404 537.769 384.76 632.153 350.905 C 663.521 338.098 702.052 320.942 744.808 303.693 C 860.083 257.386 1030.73 276.767 1130.82 408.787 C 1152.96 438.216 1172.53 466.147 1189.33 492.579 C 1290.27 654.561 1310.29 706.587 1357.14 701.882"
         style="fill:none;stroke:#e419bd;fill-opacity:0.0;stroke-opacity:1.0;stroke-width:0.423333px"
         id="path58353" />
      <path
         d="M -36.188 350.238 C 2.36756 355.737 124.844 375.168 261.263 301.292 C 272.913 294.298 284.937 286.806 297.459 279.019 C 393.929 224.146 427.315 245.206 470.317 297.832 C 507.472 348.015 536.593 388.127 631.351 354.54 C 662.715 341.899 701.328 324.967 744.176 308.04 C 859.708 262.595 1029.95 281.564 1129.53 413.823 C 1151.56 443.318 1171.04 471.25 1187.77 497.63 C 1288.71 659.938 1308.32 710.781 1355.84 706.009"
         style="fill:none;stroke:#e519bd;fill-opacity:0.0;stroke-opacity:1.0;stroke-width:0.423333px"
         id="path58355" />
      <path
         d="M -35.6548 351.198 C 3.42591 356.02 124.546 376.551 261.66 302.905 C 273.32 295.973 285.356 288.537 297.89 280.791 C 395.004 225.797 428.006 247.607 470.216 300.287 C 506.767 350.622 535.418 391.489 630.551 358.17 C 661.912 345.694 700.606 328.985 743.545 312.38 C 859.333 267.796 1029.17 286.354 1128.23 418.851 C 1150.17 448.412 1169.55 476.346 1186.21 502.673 C 1287.15 665.308 1306.35 714.969 1354.54 710.129"
         style="fill:none;stroke:#e61abc;fill-opacity:0.0;stroke-opacity:1.0;stroke-width:0.423333px"
         id="path58357" />
      <path
         d="M -35.1224 352.156 C 4.48263 356.303 124.249 377.932 262.057 304.516 C 273.727 297.645 285.774 290.265 298.32 282.56 C 396.078 227.446 428.696 250.003 470.115 302.738 C 506.062 353.226 534.244 394.845 629.752 361.794 C 661.109 349.483 699.885 332.997 742.916 316.713 C 858.959 272.989 1028.39 291.137 1126.94 423.871 C 1148.77 453.499 1168.06 481.433 1184.65 507.708 C 1285.6 670.669 1304.39 719.15 1353.25 714.243"
         style="fill:none;stroke:#e61abb;fill-opacity:0.0;stroke-opacity:1.0;stroke-width:0.423333px"
         id="path58359" />
      <path
         d="M -34.5908 353.113 C 5.53776 356.586 123.952 379.31 262.453 306.124 C 274.133 299.315 286.192 291.99 298.749 284.326 C 397.151 229.092 429.385 252.396 470.014 305.185 C 505.358 355.825 533.073 398.197 628.954 365.412 C 660.308 353.266 699.165 337.003 742.287 321.04 C 858.586 278.174 1027.61 295.912 1125.65 428.884 C 1147.38 458.578 1166.57 486.512 1183.09 512.736 C 1284.05 676.022 1302.43 723.324 1351.95 718.351"
         style="fill:none;stroke:#e71aba;fill-opacity:0.0;stroke-opacity:1.0;stroke-width:0.423333px"
         id="path58361" />
      <path
         d="M -34.06 354.069 C 6.59131 356.868 123.656 380.687 262.848 307.73 C 274.538 300.982 286.61 293.713 299.178 286.09 C 398.222 230.735 430.074 254.786 469.913 307.628 C 504.656 358.421 531.903 401.544 628.157 369.025 C 659.507 357.044 698.446 341.002 741.659 325.361 C 858.213 283.351 1026.83 300.68 1124.36 433.889 C 1145.99 463.649 1165.09 491.584 1181.54 517.755 C 1282.5 681.366 1300.48 727.493 1350.66 722.453"
         style="fill:none;stroke:#e81ab9;fill-opacity:0.0;stroke-opacity:1.0;stroke-width:0.423333px"
         id="path58363" />
      <path
         d="M -33.53 355.024 C 7.64331 357.149 123.36 382.061 263.243 309.334 C 274.942 302.647 287.026 295.433 299.606 287.851 C 399.291 232.377 430.761 257.172 469.812 310.068 C 503.954 361.013 530.735 404.885 627.361 372.632 C 658.708 360.816 697.728 344.997 741.032 329.675 C 857.841 288.521 1026.05 305.442 1123.08 438.887 C 1144.61 468.712 1163.61 496.649 1179.98 522.768 C 1280.95 686.703 1298.52 731.655 1349.37 726.548"
         style="fill:none;stroke:#e81bb8;fill-opacity:0.0;stroke-opacity:1.0;stroke-width:0.423333px"
         id="path58365" />
      <path
         d="M -33.0008 355.977 C 8.69379 357.431 123.064 383.434 263.638 310.935 C 275.346 304.309 287.442 297.151 300.034 289.609 C 400.358 234.016 431.447 259.554 469.711 312.505 C 503.254 363.601 529.569 408.222 626.566 376.235 C 657.911 364.582 697.011 348.985 740.406 333.983 C 857.469 293.683 1025.28 310.196 1121.79 443.877 C 1143.22 473.769 1162.13 501.706 1178.43 527.773 C 1279.41 692.033 1296.57 735.812 1348.08 730.638"
         style="fill:none;stroke:#e91bb7;fill-opacity:0.0;stroke-opacity:1.0;stroke-width:0.423333px"
         id="path58367" />
      <path
         d="M -32.4723 356.928 C 9.74277 357.712 122.769 384.804 264.031 312.534 C 275.75 305.969 287.858 298.866 300.461 291.365 C 401.425 235.652 432.132 261.933 469.611 314.938 C 502.554 366.185 528.405 411.554 625.773 379.832 C 657.114 368.344 696.296 352.967 739.781 338.284 C 857.098 298.838 1024.5 314.944 1120.51 448.861 C 1141.84 478.818 1160.65 506.756 1176.88 532.772 C 1277.86 697.354 1294.62 739.962 1346.8 734.722"
         style="fill:none;stroke:#ea1bb7;fill-opacity:0.0;stroke-opacity:1.0;stroke-width:0.423333px"
         id="path58369" />
      <path
         d="M -31.9446 357.878 C 10.7903 357.992 122.474 386.173 264.425 314.13 C 276.152 307.627 288.273 300.579 300.887 293.119 C 402.489 237.286 432.816 264.309 469.51 317.367 C 501.856 368.766 527.242 414.882 624.981 383.424 C 656.318 372.1 695.581 356.944 739.157 342.58 C 856.727 303.986 1023.73 319.685 1119.23 453.837 C 1140.46 483.86 1159.17 511.799 1175.34 537.763 C 1276.32 702.669 1292.68 744.106 1345.51 738.8"
         style="fill:none;stroke:#eb1bb6;fill-opacity:0.0;stroke-opacity:1.0;stroke-width:0.423333px"
         id="path58371" />
      <path
         d="M -31.4176 358.827 C 11.8363 358.272 122.18 387.54 264.817 315.725 C 276.555 309.283 288.687 302.29 301.313 294.87 C 403.552 238.918 433.499 266.682 469.41 319.794 C 501.158 371.343 526.08 418.205 624.19 387.012 C 655.524 375.85 694.867 360.916 738.534 346.87 C 856.357 309.126 1022.96 324.419 1117.95 458.807 C 1139.08 488.895 1157.7 516.835 1173.79 542.747 C 1274.78 707.975 1290.74 748.245 1344.23 742.873"
         style="fill:none;stroke:#eb1cb5;fill-opacity:0.0;stroke-opacity:1.0;stroke-width:0.423333px"
         id="path58373" />
      <path
         d="M -30.8913 359.775 C 12.8809 358.552 121.886 388.905 265.21 317.317 C 276.956 310.936 289.101 303.998 301.738 296.619 C 404.614 240.548 434.182 269.051 469.31 322.217 C 500.462 373.916 524.92 421.523 623.399 390.594 C 654.73 379.596 694.154 364.882 737.911 351.153 C 855.988 314.26 1022.19 329.147 1116.67 463.769 C 1137.7 493.923 1156.23 521.864 1172.25 547.724 C 1273.25 713.275 1288.8 752.378 1342.95 746.94"
         style="fill:none;stroke:#ec1cb4;fill-opacity:0.0;stroke-opacity:1.0;stroke-width:0.423333px"
         id="path58375" />
      <path
         d="M -30.3657 360.721 C 13.9241 358.832 121.592 390.268 265.601 318.907 C 277.357 312.587 289.514 305.704 302.163 298.365 C 405.674 242.176 434.863 271.417 469.21 324.636 C 499.766 376.486 523.762 424.837 622.61 394.171 C 653.938 383.337 693.442 368.842 737.29 355.431 C 855.618 319.386 1021.41 333.868 1115.4 468.726 C 1136.33 498.945 1154.76 526.886 1170.71 552.695 C 1271.71 718.567 1286.86 756.506 1341.67 751.001"
         style="fill:none;stroke:#ed1cb3;fill-opacity:0.0;stroke-opacity:1.0;stroke-width:0.423333px"
         id="path58377" />
      <path
         d="M -29.8408 361.666 C 14.966 359.111 121.299 391.629 265.992 320.495 C 277.758 314.235 289.927 307.407 302.587 300.109 C 406.733 243.801 435.544 273.78 469.11 327.053 C 499.071 379.053 522.606 428.146 621.822 397.744 C 653.147 387.072 692.731 372.798 736.669 359.704 C 855.25 324.506 1020.65 338.584 1114.12 473.675 C 1134.95 503.959 1153.29 531.902 1169.18 557.659 C 1270.18 723.853 1284.92 760.628 1340.39 755.057"
         style="fill:none;stroke:#ed1cb2;fill-opacity:0.0;stroke-opacity:1.0;stroke-width:0.423333px"
         id="path58379" />
      <path
         d="M -29.3167 362.61 C 16.0064 359.389 121.006 392.988 266.383 322.081 C 278.158 315.882 290.339 309.109 303.011 301.851 C 407.791 245.424 436.223 276.14 469.011 329.466 C 498.377 381.616 521.451 431.451 621.035 401.312 C 652.357 390.803 692.021 376.748 736.049 363.97 C 854.882 329.619 1019.88 343.292 1112.85 478.618 C 1133.58 508.968 1151.82 536.911 1167.64 562.616 C 1268.65 729.131 1282.99 764.744 1339.12 759.108"
         style="fill:none;stroke:#ee1db1;fill-opacity:0.0;stroke-opacity:1.0;stroke-width:0.423333px"
         id="path58381" />
      <path
         d="M -28.7932 363.553 C 17.0455 359.668 120.714 394.346 266.773 323.665 C 278.558 317.526 290.75 310.808 303.434 303.59 C 408.847 247.046 436.902 278.496 468.911 331.876 C 497.684 384.176 520.297 434.752 620.249 404.875 C 651.567 394.529 691.312 380.693 735.43 368.232 C 854.514 334.725 1019.11 347.995 1111.58 483.554 C 1132.21 513.969 1150.36 541.913 1166.11 567.568 C 1267.13 734.403 1281.06 768.856 1337.84 763.153"
         style="fill:none;stroke:#ef1db1;fill-opacity:0.0;stroke-opacity:1.0;stroke-width:0.423333px"
         id="path58383" />
      <path
         d="M -28.2703 364.494 C 18.0833 359.946 120.422 395.702 267.163 325.247 C 278.957 319.169 291.161 312.505 303.856 305.327 C 409.902 248.665 437.58 280.85 468.812 334.283 C 496.992 386.733 519.145 438.048 619.465 408.434 C 650.779 398.25 690.604 384.633 734.811 372.487 C 854.147 339.825 1018.34 352.692 1110.31 488.485 C 1130.84 518.964 1148.9 546.909 1164.58 572.512 C 1265.6 739.668 1279.13 772.962 1336.57 767.193"
         style="fill:none;stroke:#ef1db0;fill-opacity:0.0;stroke-opacity:1.0;stroke-width:0.423333px"
         id="path58385" />
      <path
         d="M -27.7482 365.435 C 19.1197 360.223 120.13 397.056 267.552 326.827 C 279.355 320.809 291.572 314.2 304.278 307.062 C 410.955 250.282 438.257 283.201 468.713 336.687 C 496.301 389.286 517.994 441.341 618.681 411.989 C 649.992 401.966 689.897 388.568 734.194 376.738 C 853.78 344.918 1017.58 357.383 1109.04 493.409 C 1129.48 523.953 1147.44 551.899 1163.05 577.451 C 1264.08 744.926 1277.21 777.063 1335.3 771.228"
         style="fill:none;stroke:#f01daf;fill-opacity:0.0;stroke-opacity:1.0;stroke-width:0.423333px"
         id="path58387" />
      <path
         d="M -27.2266 366.374 C 20.1549 360.5 119.839 398.409 267.94 328.405 C 279.753 322.447 291.982 315.892 304.699 308.795 C 412.007 251.897 438.933 285.548 468.613 339.088 C 495.611 391.837 516.845 444.629 617.898 415.538 C 649.206 405.678 689.191 392.498 733.577 380.983 C 853.414 350.005 1016.81 362.068 1107.78 498.326 C 1128.11 528.936 1145.98 556.882 1161.52 582.383 C 1262.55 750.177 1275.29 781.158 1334.03 775.258"
         style="fill:none;stroke:#f11eae;fill-opacity:0.0;stroke-opacity:1.0;stroke-width:0.423333px"
         id="path58389" />
      <path
         d="M -26.7058 367.312 C 21.1888 360.777 119.548 399.76 268.328 329.981 C 280.151 324.083 292.391 317.583 305.12 310.526 C 413.058 253.51 439.608 287.893 468.514 341.486 C 494.921 394.384 515.697 447.913 617.116 419.084 C 648.421 409.385 688.485 396.423 732.961 385.222 C 853.048 355.086 1016.05 366.747 1106.51 503.238 C 1126.75 533.912 1144.52 561.86 1159.99 587.309 C 1261.03 755.422 1273.37 785.249 1332.76 779.284"
         style="fill:none;stroke:#f11ead;fill-opacity:0.0;stroke-opacity:1.0;stroke-width:0.423333px"
         id="path58391" />
      <path
         d="M -26.1855 368.248 C 22.2214 361.054 119.257 401.109 268.716 331.555 C 280.548 325.717 292.8 319.272 305.54 312.255 C 414.107 255.121 440.283 290.235 468.415 343.881 C 494.233 396.928 514.551 451.193 616.335 422.625 C 647.636 413.087 687.78 400.344 732.346 389.457 C 852.682 360.161 1015.29 371.421 1105.25 508.144 C 1125.39 538.883 1143.07 566.831 1158.47 592.23 C 1259.51 760.661 1271.45 789.334 1331.5 783.304"
         style="fill:none;stroke:#f21eac;fill-opacity:0.0;stroke-opacity:1.0;stroke-width:0.423333px"
         id="path58393" />
      <path
         d="M -25.6659 369.184 C 23.2528 361.33 118.967 402.456 269.103 333.127 C 280.945 327.349 293.209 320.958 305.96 313.981 C 415.156 256.73 440.956 292.575 468.317 346.273 C 493.545 399.469 513.405 454.469 615.555 426.162 C 646.853 416.786 687.077 404.259 731.731 393.687 C 852.317 365.229 1014.52 376.089 1103.99 513.044 C 1124.03 543.847 1141.61 571.796 1156.95 597.144 C 1258 765.894 1269.53 793.415 1330.23 787.319"
         style="fill:none;stroke:#f31eab;fill-opacity:0.0;stroke-opacity:1.0;stroke-width:0.423333px"
         id="path58395" />
      <path
         d="M -25.1469 370.119 C 24.2829 361.606 118.677 403.802 269.49 334.697 C 281.341 328.98 293.617 322.643 306.379 315.706 C 416.203 258.337 441.629 294.911 468.218 348.662 C 492.858 402.007 512.262 457.742 614.775 429.695 C 646.071 420.479 686.374 408.171 731.117 397.911 C 851.953 370.291 1013.76 380.751 1102.73 517.938 C 1122.67 548.806 1140.16 576.755 1155.43 602.052 C 1256.48 771.12 1267.62 797.491 1328.97 791.33"
         style="fill:none;stroke:#f31fab;fill-opacity:0.0;stroke-opacity:1.0;stroke-width:0.423333px"
         id="path58397" />
      <path
         d="M -24.6285 371.052 C 25.3118 361.882 118.388 405.147 269.876 336.265 C 281.737 330.608 294.025 324.325 306.798 317.428 C 417.248 259.942 442.301 297.245 468.119 351.049 C 492.172 404.542 511.119 461.01 613.997 433.223 C 645.289 424.169 685.671 412.077 730.504 402.131 C 851.589 375.348 1013 385.408 1101.47 522.826 C 1121.31 553.759 1138.71 581.709 1153.91 606.955 C 1254.97 776.34 1265.71 801.562 1327.71 795.336"
         style="fill:none;stroke:#f41faa;fill-opacity:0.0;stroke-opacity:1.0;stroke-width:0.423333px"
         id="path58399" />
      <path
         d="M -24.1108 371.984 C 26.3396 362.157 118.098 406.49 270.262 337.832 C 282.132 332.234 294.432 326.006 307.217 319.148 C 418.293 261.546 442.973 299.576 468.021 353.432 C 491.487 407.074 509.978 464.275 613.22 436.748 C 644.508 427.854 684.97 415.979 729.892 406.345 C 851.225 380.398 1012.24 390.06 1100.22 527.708 C 1119.96 558.706 1137.26 586.657 1152.39 611.852 C 1253.46 781.554 1263.8 805.628 1326.45 799.337"
         style="fill:none;stroke:#f51fa9;fill-opacity:0.0;stroke-opacity:1.0;stroke-width:0.423333px"
         id="path58401" />
      <path
         d="M -23.5936 372.916 C 27.3662 362.432 117.809 407.831 270.647 339.397 C 282.527 333.859 294.838 327.684 307.634 320.867 C 419.336 263.147 443.643 301.904 467.923 355.813 C 490.802 409.603 508.839 467.536 612.443 440.268 C 643.729 431.535 684.27 419.876 729.28 410.555 C 850.862 385.443 1011.49 394.706 1098.96 532.585 C 1118.61 563.647 1135.82 591.599 1150.88 616.743 C 1251.95 786.762 1261.9 809.69 1325.19 803.333"
         style="fill:none;stroke:#f51fa8;fill-opacity:0.0;stroke-opacity:1.0;stroke-width:0.423333px"
         id="path58403" />
      <path
         d="M -23.077 373.846 C 28.3915 362.706 117.521 409.171 271.032 340.96 C 282.921 335.482 295.244 329.361 308.052 322.583 C 420.378 264.747 444.313 304.229 467.824 358.192 C 490.118 412.129 507.7 470.793 611.668 443.784 C 642.95 435.211 683.57 423.769 728.669 414.76 C 850.499 390.482 1010.73 399.347 1097.71 537.457 C 1117.25 568.582 1134.37 596.535 1149.36 621.629 C 1250.44 791.964 1259.99 813.747 1323.93 807.326"
         style="fill:none;stroke:#f620a7;fill-opacity:0.0;stroke-opacity:1.0;stroke-width:0.423333px"
         id="path58405" />
      <path
         d="M -22.561 374.775 C 29.4158 362.981 117.233 410.509 271.417 342.521 C 283.315 337.103 295.65 331.036 308.469 324.298 C 421.419 266.345 444.982 306.552 467.726 360.567 C 489.435 414.652 506.563 474.047 610.893 447.297 C 642.172 438.884 682.871 427.658 728.059 418.96 C 850.137 395.515 1009.97 403.982 1096.45 542.323 C 1115.9 573.513 1132.93 601.466 1147.85 626.509 C 1248.94 797.16 1258.09 817.8 1322.67 811.313"
         style="fill:none;stroke:#f720a6;fill-opacity:0.0;stroke-opacity:1.0;stroke-width:0.423333px"
         id="path58407" />
      <path
         d="M -22.0455 375.703 C 30.4389 363.255 116.945 411.846 271.801 344.081 C 283.708 338.722 296.055 332.709 308.885 326.011 C 422.459 267.941 445.65 308.873 467.628 362.94 C 488.753 417.173 505.427 477.297 610.119 450.805 C 641.395 442.553 682.173 431.542 727.449 423.156 C 849.775 400.543 1009.22 408.613 1095.2 547.183 C 1114.56 578.437 1131.49 606.391 1146.34 631.384 C 1247.43 802.35 1256.19 821.848 1321.42 815.296"
         style="fill:none;stroke:#f720a6;fill-opacity:0.0;stroke-opacity:1.0;stroke-width:0.423333px"
         id="path58409" />
      <path
         d="M -21.5306 376.63 C 31.4609 363.528 116.657 413.181 272.185 345.638 C 284.101 340.339 296.46 334.38 309.301 327.721 C 423.498 269.536 446.318 311.191 467.53 365.311 C 488.071 419.691 504.293 480.543 609.346 454.31 C 640.619 446.217 681.475 435.422 726.84 427.347 C 849.413 405.565 1008.46 413.238 1093.95 552.039 C 1113.21 583.357 1130.05 611.312 1144.83 636.254 C 1245.93 807.535 1254.29 825.891 1320.17 819.275"
         style="fill:none;stroke:#f820a5;fill-opacity:0.0;stroke-opacity:1.0;stroke-width:0.423333px"
         id="path58411" />
      <path
         d="M -21.0163 377.556 C 32.4818 363.802 116.37 414.515 272.568 347.194 C 284.494 341.955 296.864 336.049 309.717 329.43 C 424.535 271.129 446.985 313.506 467.433 367.678 C 487.391 422.206 503.159 483.786 608.574 457.811 C 639.843 449.878 680.779 439.298 726.232 431.533 C 849.052 410.582 1007.71 417.859 1092.7 556.888 C 1111.86 588.27 1128.61 616.226 1143.33 641.118 C 1244.43 812.714 1252.4 829.93 1318.91 823.25"
         style="fill:none;stroke:#f921a4;fill-opacity:0.0;stroke-opacity:1.0;stroke-width:0.423333px"
         id="path58413" />
      <path
         d="M -20.5026 378.481 C 33.5015 364.075 116.083 415.847 272.951 348.749 C 284.886 343.569 297.268 337.717 310.132 331.138 C 425.572 272.72 447.651 315.819 467.335 370.044 C 486.711 424.718 502.027 487.025 607.803 461.308 C 639.069 453.534 680.083 443.17 725.624 435.715 C 848.691 415.593 1006.96 422.474 1091.46 561.733 C 1110.52 593.179 1127.17 621.136 1141.82 645.977 C 1242.93 817.888 1250.5 833.965 1317.66 827.22"
         style="fill:none;stroke:#f921a3;fill-opacity:0.0;stroke-opacity:1.0;stroke-width:0.423333px"
         id="path58415" />
      <path
         d="M -19.9893 379.406 C 34.5202 364.348 115.796 417.178 273.333 350.302 C 285.278 345.181 297.672 339.383 310.546 332.843 C 426.607 274.309 448.316 318.129 467.237 372.406 C 486.031 427.228 500.896 490.261 607.032 464.802 C 638.295 457.187 679.388 447.038 725.017 439.893 C 848.33 420.599 1006.2 427.084 1090.21 566.573 C 1109.18 598.082 1125.74 626.04 1140.32 650.831 C 1241.43 823.056 1248.61 837.996 1316.41 831.186"
         style="fill:none;stroke:#fa21a2;fill-opacity:0.0;stroke-opacity:1.0;stroke-width:0.423333px"
         id="path58417" />
      <path
         d="M -19.4767 380.329 C 35.5378 364.62 115.51 418.508 273.715 351.853 C 285.669 346.791 298.075 341.047 310.961 334.546 C 427.642 275.897 448.981 320.437 467.14 374.767 C 485.353 429.735 499.766 493.494 606.262 468.291 C 637.522 460.836 678.693 450.901 724.411 444.066 C 847.97 425.6 1005.45 431.69 1088.97 571.407 C 1107.83 602.981 1124.3 630.939 1138.82 655.68 C 1239.93 828.218 1246.72 842.022 1315.17 835.148"
         style="fill:none;stroke:#fb21a1;fill-opacity:0.0;stroke-opacity:1.0;stroke-width:0.423333px"
         id="path58419" />
      <path
         d="M -18.9645 381.251 C 36.5544 364.893 115.224 419.836 274.097 353.402 C 286.06 348.4 298.478 342.709 311.374 336.248 C 428.675 277.483 449.645 322.743 467.042 377.124 C 484.675 432.239 498.638 496.723 605.494 471.777 C 636.75 464.481 678 454.761 723.805 448.235 C 847.611 430.596 1004.7 436.291 1087.72 576.237 C 1106.49 607.874 1122.87 635.833 1137.32 660.523 C 1238.44 833.376 1244.83 846.044 1313.92 839.105"
         style="fill:none;stroke:#fc22a1;fill-opacity:0.0;stroke-opacity:1.0;stroke-width:0.423333px"
         id="path58421" />
    </g>
  </g>
</svg>
