<?xml version="1.0" encoding="UTF-8" standalone="no"?>
<!-- Created with Inkscape (http://www.inkscape.org/) -->

<svg
   inkscape:version="1.2.2 (b0a8486541, 2022-12-01)"
   sodipodi:docname="drawing-4.svg"
   id="svg5"
   version="1.1"
   viewBox="0 0 1083.7333 571.5"
   height="2160"
   width="4096"
   xmlns:inkscape="http://www.inkscape.org/namespaces/inkscape"
   xmlns:sodipodi="http://sodipodi.sourceforge.net/DTD/sodipodi-0.dtd"
   xmlns="http://www.w3.org/2000/svg"
   xmlns:svg="http://www.w3.org/2000/svg">
  <sodipodi:namedview
     id="namedview7"
     pagecolor="#505050"
     bordercolor="#eeeeee"
     borderopacity="1"
     inkscape:showpageshadow="0"
     inkscape:pageopacity="0"
     inkscape:pagecheckerboard="0"
     inkscape:deskcolor="#505050"
     inkscape:document-units="mm"
     showgrid="false"
     inkscape:zoom="0.35355339"
     inkscape:cx="2401.3346"
     inkscape:cy="1127.1282"
     inkscape:window-width="1890"
     inkscape:window-height="1030"
     inkscape:window-x="10"
     inkscape:window-y="30"
     inkscape:window-maximized="1"
     inkscape:current-layer="layer3" />
  <defs
     id="defs2">
    <filter
       style="color-interpolation-filters:sRGB"
       id="filter2656"
       inkscape:label="filter0" />
  </defs>
  <g
     inkscape:label="Layer 1"
     inkscape:groupmode="layer"
     id="layer1"
     style="display:inline">
    <rect
       style="display:inline;fill:#000000;stroke:#ffffff;stroke-width:0.25664583;fill-opacity:1;stroke-dasharray:none"
       id="rect883"
       width="1095.5448"
       height="580.92609"
       x="-6.2913232"
       y="-3.8118486"
       inkscape:label="#0" />
  </g>
  <g
     inkscape:groupmode="layer"
     id="layer2"
     inkscape:label="Layer 2">
    <g
       id="g73175">
      <path
         d="M -29.905 687.428 L 17.5837 -987.024"
         style="fill:#4d4d4d;stroke:#454545;fill-opacity:1.0;stroke-opacity:1.0;stroke-width:0.423333px"
         id="path72997" />
      <path
         d="M -30.8541 687.555 L 40.9166 -968.3"
         style="fill:#4d4d4d;stroke:#474747;fill-opacity:1.0;stroke-opacity:1.0;stroke-width:0.423333px"
         id="path72999" />
      <path
         d="M -31.8032 687.681 L 64.2495 -949.575"
         style="fill:#4d4d4d;stroke:#494949;fill-opacity:1.0;stroke-opacity:1.0;stroke-width:0.423333px"
         id="path73001" />
      <path
         d="M -32.7523 687.808 L 87.5825 -930.851"
         style="fill:#4d4d4d;stroke:#4b4b4b;fill-opacity:1.0;stroke-opacity:1.0;stroke-width:0.423333px"
         id="path73003" />
      <path
         d="M -33.7014 687.934 L 110.915 -912.126"
         style="fill:#4d4d4d;stroke:#4d4d4d;fill-opacity:1.0;stroke-opacity:1.0;stroke-width:0.423333px"
         id="path73005" />
      <path
         d="M -34.6505 688.06 L 134.248 -893.402"
         style="fill:#4d4d4d;stroke:#4f4f4f;fill-opacity:1.0;stroke-opacity:1.0;stroke-width:0.423333px"
         id="path73007" />
      <path
         d="M -35.5997 688.187 L 157.581 -874.677"
         style="fill:#4d4d4d;stroke:#515151;fill-opacity:1.0;stroke-opacity:1.0;stroke-width:0.423333px"
         id="path73009" />
      <path
         d="M -36.5488 688.313 L 180.914 -855.952"
         style="fill:#4d4d4d;stroke:#535353;fill-opacity:1.0;stroke-opacity:1.0;stroke-width:0.423333px"
         id="path73011" />
      <path
         d="M -37.4979 688.439 L 204.247 -837.228"
         style="fill:#4d4d4d;stroke:#555555;fill-opacity:1.0;stroke-opacity:1.0;stroke-width:0.423333px"
         id="path73013" />
      <path
         d="M -38.447 688.566 L 227.58 -818.503"
         style="fill:#4d4d4d;stroke:#575757;fill-opacity:1.0;stroke-opacity:1.0;stroke-width:0.423333px"
         id="path73015" />
      <path
         d="M -39.3961 688.692 L 250.913 -799.779"
         style="fill:#4d4d4d;stroke:#595959;fill-opacity:1.0;stroke-opacity:1.0;stroke-width:0.423333px"
         id="path73017" />
      <path
         d="M -40.3452 688.818 L 274.246 -781.054"
         style="fill:#4d4d4d;stroke:#5b5b5b;fill-opacity:1.0;stroke-opacity:1.0;stroke-width:0.423333px"
         id="path73019" />
      <path
         d="M -41.2943 688.945 L 297.579 -762.33"
         style="fill:#4d4d4d;stroke:#5d5d5d;fill-opacity:1.0;stroke-opacity:1.0;stroke-width:0.423333px"
         id="path73021" />
      <path
         d="M -42.2434 689.071 L 320.912 -743.605"
         style="fill:#4d4d4d;stroke:#5f5f5f;fill-opacity:1.0;stroke-opacity:1.0;stroke-width:0.423333px"
         id="path73023" />
      <path
         d="M -43.1926 689.198 L 344.245 -724.881"
         style="fill:#4d4d4d;stroke:#616161;fill-opacity:1.0;stroke-opacity:1.0;stroke-width:0.423333px"
         id="path73025" />
      <path
         d="M -44.1417 689.324 L 367.578 -706.156"
         style="fill:#4d4d4d;stroke:#636363;fill-opacity:1.0;stroke-opacity:1.0;stroke-width:0.423333px"
         id="path73027" />
      <path
         d="M -45.0908 689.45 L 390.911 -687.432"
         style="fill:#4d4d4d;stroke:#656565;fill-opacity:1.0;stroke-opacity:1.0;stroke-width:0.423333px"
         id="path73029" />
      <path
         d="M -46.0399 689.577 L 414.244 -668.707"
         style="fill:#4d4d4d;stroke:#676767;fill-opacity:1.0;stroke-opacity:1.0;stroke-width:0.423333px"
         id="path73031" />
      <path
         d="M -46.989 689.703 L 437.576 -649.983"
         style="fill:#4d4d4d;stroke:#696969;fill-opacity:1.0;stroke-opacity:1.0;stroke-width:0.423333px"
         id="path73033" />
      <path
         d="M -47.9381 689.829 L 460.909 -631.258"
         style="fill:#4d4d4d;stroke:#6b6b6b;fill-opacity:1.0;stroke-opacity:1.0;stroke-width:0.423333px"
         id="path73035" />
      <path
         d="M -48.8872 689.956 L 484.242 -612.534"
         style="fill:#4d4d4d;stroke:#6d6d6d;fill-opacity:1.0;stroke-opacity:1.0;stroke-width:0.423333px"
         id="path73037" />
      <path
         d="M -49.8363 690.082 L 507.575 -593.809"
         style="fill:#4d4d4d;stroke:#6f6f6f;fill-opacity:1.0;stroke-opacity:1.0;stroke-width:0.423333px"
         id="path73039" />
      <path
         d="M -50.7855 690.208 L 530.908 -575.085"
         style="fill:#4d4d4d;stroke:#717171;fill-opacity:1.0;stroke-opacity:1.0;stroke-width:0.423333px"
         id="path73041" />
      <path
         d="M -51.7346 690.335 L 554.241 -556.36"
         style="fill:#4d4d4d;stroke:#737373;fill-opacity:1.0;stroke-opacity:1.0;stroke-width:0.423333px"
         id="path73043" />
      <path
         d="M -52.6837 690.461 L 577.574 -537.636"
         style="fill:#4d4d4d;stroke:#757575;fill-opacity:1.0;stroke-opacity:1.0;stroke-width:0.423333px"
         id="path73045" />
      <path
         d="M -53.6328 690.588 L 600.907 -518.911"
         style="fill:#4d4d4d;stroke:#777777;fill-opacity:1.0;stroke-opacity:1.0;stroke-width:0.423333px"
         id="path73047" />
      <path
         d="M -54.5819 690.714 L 624.24 -500.186"
         style="fill:#4d4d4d;stroke:#797979;fill-opacity:1.0;stroke-opacity:1.0;stroke-width:0.423333px"
         id="path73049" />
      <path
         d="M -55.531 690.84 L 647.573 -481.462"
         style="fill:#4d4d4d;stroke:#7b7b7b;fill-opacity:1.0;stroke-opacity:1.0;stroke-width:0.423333px"
         id="path73051" />
      <path
         d="M -56.4801 690.967 L 670.906 -462.737"
         style="fill:#4d4d4d;stroke:#7d7d7d;fill-opacity:1.0;stroke-opacity:1.0;stroke-width:0.423333px"
         id="path73053" />
      <path
         d="M -57.4293 691.093 L 694.239 -444.013"
         style="fill:#4d4d4d;stroke:#7f7f7f;fill-opacity:1.0;stroke-opacity:1.0;stroke-width:0.423333px"
         id="path73055" />
      <path
         d="M -58.3784 691.219 L 717.572 -425.288"
         style="fill:#4d4d4d;stroke:#808080;fill-opacity:1.0;stroke-opacity:1.0;stroke-width:0.423333px"
         id="path73057" />
      <path
         d="M -59.3275 691.346 L 740.905 -406.564"
         style="fill:#4d4d4d;stroke:#828282;fill-opacity:1.0;stroke-opacity:1.0;stroke-width:0.423333px"
         id="path73059" />
      <path
         d="M -60.2766 691.472 L 764.238 -387.839"
         style="fill:#4d4d4d;stroke:#848484;fill-opacity:1.0;stroke-opacity:1.0;stroke-width:0.423333px"
         id="path73061" />
      <path
         d="M -61.2257 691.598 L 787.57 -369.115"
         style="fill:#4d4d4d;stroke:#868686;fill-opacity:1.0;stroke-opacity:1.0;stroke-width:0.423333px"
         id="path73063" />
      <path
         d="M -62.1748 691.725 L 810.903 -350.39"
         style="fill:#4d4d4d;stroke:#888888;fill-opacity:1.0;stroke-opacity:1.0;stroke-width:0.423333px"
         id="path73065" />
      <path
         d="M -63.1239 691.851 L 834.236 -331.666"
         style="fill:#4d4d4d;stroke:#8a8a8a;fill-opacity:1.0;stroke-opacity:1.0;stroke-width:0.423333px"
         id="path73067" />
      <path
         d="M -64.073 691.978 L 857.569 -312.941"
         style="fill:#4d4d4d;stroke:#8c8c8c;fill-opacity:1.0;stroke-opacity:1.0;stroke-width:0.423333px"
         id="path73069" />
      <path
         d="M -65.0222 692.104 L 880.902 -294.217"
         style="fill:#4d4d4d;stroke:#8e8e8e;fill-opacity:1.0;stroke-opacity:1.0;stroke-width:0.423333px"
         id="path73071" />
      <path
         d="M -65.9713 692.23 L 904.235 -275.492"
         style="fill:#4d4d4d;stroke:#909090;fill-opacity:1.0;stroke-opacity:1.0;stroke-width:0.423333px"
         id="path73073" />
      <path
         d="M -66.9204 692.357 L 927.568 -256.768"
         style="fill:#4d4d4d;stroke:#929292;fill-opacity:1.0;stroke-opacity:1.0;stroke-width:0.423333px"
         id="path73075" />
      <path
         d="M -67.8695 692.483 L 950.901 -238.043"
         style="fill:#4d4d4d;stroke:#949494;fill-opacity:1.0;stroke-opacity:1.0;stroke-width:0.423333px"
         id="path73077" />
      <path
         d="M -68.8186 692.609 L 974.234 -219.319"
         style="fill:#4d4d4d;stroke:#969696;fill-opacity:1.0;stroke-opacity:1.0;stroke-width:0.423333px"
         id="path73079" />
      <path
         d="M -69.7677 692.736 L 997.567 -200.594"
         style="fill:#4d4d4d;stroke:#989898;fill-opacity:1.0;stroke-opacity:1.0;stroke-width:0.423333px"
         id="path73081" />
      <path
         d="M -70.7168 692.862 L 1020.9 -181.869"
         style="fill:#4d4d4d;stroke:#9a9a9a;fill-opacity:1.0;stroke-opacity:1.0;stroke-width:0.423333px"
         id="path73083" />
      <path
         d="M -71.666 692.989 L 1044.23 -163.145"
         style="fill:#4d4d4d;stroke:#9c9c9c;fill-opacity:1.0;stroke-opacity:1.0;stroke-width:0.423333px"
         id="path73085" />
      <path
         d="M -72.6151 693.115 L 1067.57 -144.42"
         style="fill:#4d4d4d;stroke:#9e9e9e;fill-opacity:1.0;stroke-opacity:1.0;stroke-width:0.423333px"
         id="path73087" />
      <path
         d="M -73.5642 693.241 L 1090.9 -125.696"
         style="fill:#4d4d4d;stroke:#a0a0a0;fill-opacity:1.0;stroke-opacity:1.0;stroke-width:0.423333px"
         id="path73089" />
      <path
         d="M -74.5133 693.368 L 1114.23 -106.971"
         style="fill:#4d4d4d;stroke:#a2a2a2;fill-opacity:1.0;stroke-opacity:1.0;stroke-width:0.423333px"
         id="path73091" />
      <path
         d="M -75.4624 693.494 L 1137.56 -88.2468"
         style="fill:#4d4d4d;stroke:#a4a4a4;fill-opacity:1.0;stroke-opacity:1.0;stroke-width:0.423333px"
         id="path73093" />
      <path
         d="M -76.4115 693.62 L 1160.9 -69.5223"
         style="fill:#4d4d4d;stroke:#a6a6a6;fill-opacity:1.0;stroke-opacity:1.0;stroke-width:0.423333px"
         id="path73095" />
      <path
         d="M -77.3606 693.747 L 1184.23 -50.7978"
         style="fill:#4d4d4d;stroke:#a8a8a8;fill-opacity:1.0;stroke-opacity:1.0;stroke-width:0.423333px"
         id="path73097" />
      <path
         d="M -78.3097 693.873 L 1207.56 -32.0732"
         style="fill:#4d4d4d;stroke:#aaaaaa;fill-opacity:1.0;stroke-opacity:1.0;stroke-width:0.423333px"
         id="path73099" />
      <path
         d="M -79.2589 693.999 L 1230.9 -13.3487"
         style="fill:#4d4d4d;stroke:#acacac;fill-opacity:1.0;stroke-opacity:1.0;stroke-width:0.423333px"
         id="path73101" />
      <path
         d="M -80.208 694.126 L 1254.23 5.37581"
         style="fill:#4d4d4d;stroke:#aeaeae;fill-opacity:1.0;stroke-opacity:1.0;stroke-width:0.423333px"
         id="path73103" />
      <path
         d="M -81.1571 694.252 L 1277.56 24.1003"
         style="fill:#4d4d4d;stroke:#b0b0b0;fill-opacity:1.0;stroke-opacity:1.0;stroke-width:0.423333px"
         id="path73105" />
      <path
         d="M -82.1062 694.379 L 1300.9 42.8249"
         style="fill:#4d4d4d;stroke:#b2b2b2;fill-opacity:1.0;stroke-opacity:1.0;stroke-width:0.423333px"
         id="path73107" />
      <path
         d="M -83.0553 694.505 L 1324.23 61.5494"
         style="fill:#4d4d4d;stroke:#b4b4b4;fill-opacity:1.0;stroke-opacity:1.0;stroke-width:0.423333px"
         id="path73109" />
      <path
         d="M -84.0044 694.631 L 1347.56 80.2739"
         style="fill:#4d4d4d;stroke:#b6b6b6;fill-opacity:1.0;stroke-opacity:1.0;stroke-width:0.423333px"
         id="path73111" />
      <path
         d="M -84.9535 694.758 L 1370.89 98.9984"
         style="fill:#4d4d4d;stroke:#b8b8b8;fill-opacity:1.0;stroke-opacity:1.0;stroke-width:0.423333px"
         id="path73113" />
      <path
         d="M -85.9026 694.884 L 1394.23 117.723"
         style="fill:#4d4d4d;stroke:#bababa;fill-opacity:1.0;stroke-opacity:1.0;stroke-width:0.423333px"
         id="path73115" />
      <path
         d="M -86.8518 695.01 L 1417.56 136.448"
         style="fill:#4d4d4d;stroke:#bbbbbb;fill-opacity:1.0;stroke-opacity:1.0;stroke-width:0.423333px"
         id="path73117" />
      <path
         d="M -87.8009 695.137 L 1440.89 155.172"
         style="fill:#4d4d4d;stroke:#bdbdbd;fill-opacity:1.0;stroke-opacity:1.0;stroke-width:0.423333px"
         id="path73119" />
      <path
         d="M -88.75 695.263 L 1464.23 173.897"
         style="fill:#4d4d4d;stroke:#bfbfbf;fill-opacity:1.0;stroke-opacity:1.0;stroke-width:0.423333px"
         id="path73121" />
      <path
         d="M -89.6991 695.389 L 1487.56 192.621"
         style="fill:#4d4d4d;stroke:#c1c1c1;fill-opacity:1.0;stroke-opacity:1.0;stroke-width:0.423333px"
         id="path73123" />
      <path
         d="M -90.6482 695.516 L 1510.89 211.346"
         style="fill:#4d4d4d;stroke:#c3c3c3;fill-opacity:1.0;stroke-opacity:1.0;stroke-width:0.423333px"
         id="path73125" />
      <path
         d="M -91.5973 695.642 L 1534.22 230.07"
         style="fill:#4d4d4d;stroke:#c5c5c5;fill-opacity:1.0;stroke-opacity:1.0;stroke-width:0.423333px"
         id="path73127" />
      <path
         d="M -92.5464 695.769 L 1557.56 248.795"
         style="fill:#4d4d4d;stroke:#c7c7c7;fill-opacity:1.0;stroke-opacity:1.0;stroke-width:0.423333px"
         id="path73129" />
      <path
         d="M -93.4956 695.895 L 1580.89 267.519"
         style="fill:#4d4d4d;stroke:#c9c9c9;fill-opacity:1.0;stroke-opacity:1.0;stroke-width:0.423333px"
         id="path73131" />
      <path
         d="M -94.4447 696.021 L 1604.22 286.244"
         style="fill:#4d4d4d;stroke:#cbcbcb;fill-opacity:1.0;stroke-opacity:1.0;stroke-width:0.423333px"
         id="path73133" />
      <path
         d="M -95.3938 696.148 L 1627.56 304.968"
         style="fill:#4d4d4d;stroke:#cdcdcd;fill-opacity:1.0;stroke-opacity:1.0;stroke-width:0.423333px"
         id="path73135" />
      <path
         d="M -96.3429 696.274 L 1650.89 323.693"
         style="fill:#4d4d4d;stroke:#cfcfcf;fill-opacity:1.0;stroke-opacity:1.0;stroke-width:0.423333px"
         id="path73137" />
      <path
         d="M -97.292 696.4 L 1674.22 342.417"
         style="fill:#4d4d4d;stroke:#d1d1d1;fill-opacity:1.0;stroke-opacity:1.0;stroke-width:0.423333px"
         id="path73139" />
      <path
         d="M -98.2411 696.527 L 1697.55 361.142"
         style="fill:#4d4d4d;stroke:#d3d3d3;fill-opacity:1.0;stroke-opacity:1.0;stroke-width:0.423333px"
         id="path73141" />
      <path
         d="M -99.1902 696.653 L 1720.89 379.866"
         style="fill:#4d4d4d;stroke:#d5d5d5;fill-opacity:1.0;stroke-opacity:1.0;stroke-width:0.423333px"
         id="path73143" />
      <path
         d="M -100.139 696.779 L 1744.22 398.591"
         style="fill:#4d4d4d;stroke:#d7d7d7;fill-opacity:1.0;stroke-opacity:1.0;stroke-width:0.423333px"
         id="path73145" />
      <path
         d="M -101.088 696.906 L 1767.55 417.315"
         style="fill:#4d4d4d;stroke:#d9d9d9;fill-opacity:1.0;stroke-opacity:1.0;stroke-width:0.423333px"
         id="path73147" />
      <path
         d="M -102.038 697.032 L 1790.89 436.04"
         style="fill:#4d4d4d;stroke:#dbdbdb;fill-opacity:1.0;stroke-opacity:1.0;stroke-width:0.423333px"
         id="path73149" />
      <path
         d="M -102.987 697.159 L 1814.22 454.764"
         style="fill:#4d4d4d;stroke:#dddddd;fill-opacity:1.0;stroke-opacity:1.0;stroke-width:0.423333px"
         id="path73151" />
      <path
         d="M -103.936 697.285 L 1837.55 473.489"
         style="fill:#4d4d4d;stroke:#dfdfdf;fill-opacity:1.0;stroke-opacity:1.0;stroke-width:0.423333px"
         id="path73153" />
      <path
         d="M -104.885 697.411 L 1860.89 492.214"
         style="fill:#4d4d4d;stroke:#e1e1e1;fill-opacity:1.0;stroke-opacity:1.0;stroke-width:0.423333px"
         id="path73155" />
      <path
         d="M -105.834 697.538 L 1884.22 510.938"
         style="fill:#4d4d4d;stroke:#e3e3e3;fill-opacity:1.0;stroke-opacity:1.0;stroke-width:0.423333px"
         id="path73157" />
      <path
         d="M -106.783 697.664 L 1907.55 529.663"
         style="fill:#4d4d4d;stroke:#e5e5e5;fill-opacity:1.0;stroke-opacity:1.0;stroke-width:0.423333px"
         id="path73159" />
      <path
         d="M -107.732 697.79 L 1930.88 548.387"
         style="fill:#4d4d4d;stroke:#e7e7e7;fill-opacity:1.0;stroke-opacity:1.0;stroke-width:0.423333px"
         id="path73161" />
      <path
         d="M -108.681 697.917 L 1954.22 567.112"
         style="fill:#4d4d4d;stroke:#e9e9e9;fill-opacity:1.0;stroke-opacity:1.0;stroke-width:0.423333px"
         id="path73163" />
      <path
         d="M -109.63 698.043 L 1977.55 585.836"
         style="fill:#4d4d4d;stroke:#ebebeb;fill-opacity:1.0;stroke-opacity:1.0;stroke-width:0.423333px"
         id="path73165" />
      <path
         d="M -110.58 698.169 L 2000.88 604.561"
         style="fill:#4d4d4d;stroke:#ededed;fill-opacity:1.0;stroke-opacity:1.0;stroke-width:0.423333px"
         id="path73167" />
      <path
         d="M -111.529 698.296 L 2024.22 623.285"
         style="fill:#4d4d4d;stroke:#efefef;fill-opacity:1.0;stroke-opacity:1.0;stroke-width:0.423333px"
         id="path73169" />
      <path
         d="M -112.478 698.422 L 2047.55 642.01"
         style="fill:#4d4d4d;stroke:#f1f1f1;fill-opacity:1.0;stroke-opacity:1.0;stroke-width:0.423333px"
         id="path73171" />
      <path
         d="M -113.427 698.549 L 2070.88 660.734"
         style="fill:#4d4d4d;stroke:#f3f3f3;fill-opacity:1.0;stroke-opacity:1.0;stroke-width:0.423333px"
         id="path73173" />
    </g>
  </g>
  <g
     inkscape:groupmode="layer"
     id="layer3"
     inkscape:label="Layer 3">
    <rect
       style="display:inline;fill:#000000;fill-opacity:0.58872563;stroke:#ffffff;stroke-width:0.256646;stroke-dasharray:none"
       id="0"
       width="1095.5448"
       height="580.92609"
       x="-6.2913232"
       y="-3.8118486"
       inkscape:label="#0" />
  </g>
</svg>
